<?xml version="1.0" encoding="UTF-8"?>
<session version="1.0">
<refactoring accessors="true" comment="Delete element from project &apos;_pasted_code_&apos;&#x0D;&#x0A;- Original project: &apos;_pasted_code_&apos;&#x0D;&#x0A;- Original element: &apos;snippet.Snippet.java&apos;" description="Delete element" element1="/src&lt;snippet{Snippet.java" elements="1" flags="589830" id="org.eclipse.jdt.ui.delete" resources="0" stamp="1581079030719" subPackages="false" version="1.0"/>
</session>